TTTTTTTTTTTTTTTTTTTTTTT                             tttt                                iiii                   
T:::::::::::::::::::::T                          ttt:::t                               i::::i                  
T:::::::::::::::::::::T                          t:::::t                                iiii                   
T:::::TT:::::::TT:::::T                          t:::::t                                                       
TTTTTT  T:::::T  TTTTTT    eeeeeeeeeeee    ttttttt:::::ttttttt    rrrrr   rrrrrrrrr   iiiiiii     ssssssssss   
        T:::::T          ee::::::::::::ee  t:::::::::::::::::t    r::::rrr:::::::::r  i:::::i   ss::::::::::s  
        T:::::T         e::::::eeeee:::::eet:::::::::::::::::t    r:::::::::::::::::r  i::::i ss:::::::::::::s 
        T:::::T        e::::::e     e:::::etttttt:::::::tttttt    rr::::::rrrrr::::::r i::::i s::::::ssss:::::s
        T:::::T        e:::::::eeeee::::::e      t:::::t           r:::::r     r:::::r i::::i  s:::::s  ssssss 
        T:::::T        e:::::::::::::::::e       t:::::t           r:::::r     rrrrrrr i::::i    s::::::s      
        T:::::T        e::::::eeeeeeeeeee        t:::::t           r:::::r             i::::i       s::::::s   
        T:::::T        e:::::::e                 t:::::t    tttttt r:::::r             i::::i ssssss   s:::::s 
      TT:::::::TT      e::::::::e                t::::::tttt:::::t r:::::r            i::::::is:::::ssss::::::s
      T:::::::::T       e::::::::eeeeeeee        tt::::::::::::::t r:::::r            i::::::is::::::::::::::s 
      T:::::::::T        ee:::::::::::::e          tt:::::::::::tt r:::::r            i::::::i s:::::::::::ss  
      TTTTTTTTTTT          eeeeeeeeeeeeee            ttttttttttt   rrrrrrr            iiiiiiii  sssssssssss    